…
This is the example of a function present in the current version of the
package, used to generate a table (`tibble`) with names of countries,
capitals, continents, area in km<sup>2</sup>, population and population
density (function name in english would mean `generate_table()`):

``` r
# Caso prefira não carregar o pacote, utilizar como continentesBR::gerar_tabela()

# If you prefer not to load the package, use as continentsBR::gerar_tabela() 
library(continentesBR)
gerar_tabela()
#> # A tibble: 217 × 9
#>    pais   capital  continente posicao_pop     pop data_pop posicao_area area_km2
#>    <chr>  <chr>    <chr>            <int>   <dbl>    <int>        <int>    <dbl>
#>  1 Canadá Ottawa   América d…          39  3.77e7     2020            2  9984670
#>  2 Estad… Washing… América d…           3  3.31e8     2020            4  9525017
#>  3 México Cidade … América d…          10  1.29e8     2020           13  1964375
#>  4 Antíg… Saint J… América C…         184  9.79e4     2020          182      440
#>  5 Baham… Nassau   América C…         171  3.93e5     2020          156    13878
#>  6 Barba… Bridget… América C…         174  2.87e5     2020          183      430
#>  7 Belize Belmopan América C…         170  3.98e5     2020          148    22965
#>  8 Costa… São José América C…         120  5.09e6     2020          126    51100
#>  9 Cuba   Havana   América C…          82  1.13e7     2020          104   110861
#> 10 Domin… Roseau   América C…          NA NA            NA          172      751
#> # … with 207 more rows, and 1 more variable: dens_pop <dbl>
```
…
